{ "compressionlevel":-1,
 "height":10,
 "infinite":false,
 "layers":[
        {
         "data":[236, 236, 236, 236, 236, 236, 236, 236, 236, 236, 236, 236, 236, 236, 236, 236, 236, 236, 236, 236, 236, 236, 236, 236, 236, 236, 236, 236, 236, 236, 236, 236, 236, 236, 236, 236, 236, 236, 236, 236, 236, 236, 236, 236, 236, 236, 236, 236, 236, 236, 236, 236, 236, 236, 236, 236, 236, 236, 236, 236, 236, 236, 236, 236, 236, 236, 236, 236, 236, 236, 236, 236, 236, 236, 236, 236, 236, 236, 236, 236, 236, 236, 236, 236, 236, 236, 236, 236, 236, 236, 236, 236, 236, 236, 236, 236, 236, 236, 236, 236],
         "height":10,
         "id":1,
         "name":"base",
         "opacity":1,
         "properties":[
                {
                 "name":"pre_render",
                 "type":"bool",
                 "value":true
                }],
         "type":"tilelayer",
         "visible":true,
         "width":10,
         "x":0,
         "y":0
        }, 
        {
         "data":[45, 45, 45, 45, 45, 45, 45, 45, 45, 45, 45, 0, 0, 0, 0, 0, 0, 0, 0, 45, 45, 0, 0, 0, 0, 0, 0, 0, 0, 45, 45, 0, 0, 0, 0, 0, 0, 0, 0, 45, 45, 0, 0, 0, 0, 0, 0, 0, 0, 45, 45, 0, 0, 0, 0, 0, 0, 0, 0, 45, 45, 0, 0, 0, 0, 0, 0, 0, 0, 45, 45, 0, 0, 0, 0, 0, 0, 0, 0, 45, 45, 0, 0, 0, 0, 0, 0, 0, 0, 45, 45, 45, 45, 45, 45, 45, 45, 45, 45, 45],
         "height":10,
         "id":2,
         "name":"building",
         "opacity":1,
         "type":"tilelayer",
         "visible":true,
         "width":10,
         "x":0,
         "y":0
        }, 
        {
         "data":[0, 0, 0, 0, 0, 0, 0, 0, 0, 0, 0, 0, 0, 0, 0, 0, 0, 0, 0, 0, 0, 0, 0, 0, 0, 0, 0, 0, 0, 0, 0, 0, 0, 0, 0, 0, 0, 0, 0, 0, 0, 0, 0, 0, 0, 0, 0, 0, 0, 0, 0, 0, 0, 0, 0, 0, 0, 0, 0, 0, 0, 0, 0, 0, 0, 0, 0, 0, 0, 0, 0, 0, 0, 0, 0, 0, 0, 0, 0, 0, 0, 0, 0, 0, 0, 0, 0, 0, 0, 0, 0, 0, 0, 0, 0, 0, 0, 0, 0, 0],
         "height":10,
         "id":3,
         "name":"props",
         "opacity":1,
         "type":"tilelayer",
         "visible":true,
         "width":10,
         "x":0,
         "y":0
        }],
 "nextlayerid":4,
 "nextobjectid":106,
 "orientation":"orthogonal",
 "properties":[
        {
         "name":"ambient_light_colour",
         "type":"color",
         "value":"#ff666666"
        }, 
        {
         "name":"ambient_light_intensity",
         "type":"float",
         "value":1
        }, 
        {
         "name":"max_player_velocity",
         "type":"float",
         "value":110
        }, 
        {
         "name":"player_friction_multiplier",
         "type":"float",
         "value":0.8
        }, 
        {
         "name":"player_friction_timer",
         "type":"float",
         "value":1.4
        }, 
        {
         "name":"player_mass",
         "type":"float",
         "value":300
        }, 
        {
         "name":"player_walk_force",
         "type":"float",
         "value":200000
        }, 
        {
         "name":"player_walk_force_initial",
         "type":"float",
         "value":1000000
        }, 
        {
         "name":"reload_timer",
         "type":"float",
         "value":1.2
        }, 
        {
         "name":"sprint_timer",
         "type":"float",
         "value":5
        }],
 "renderorder":"right-down",
 "tiledversion":"1.7.1",
 "tileheight":32,
 "tilesets":[
        {
         "columns":18,
         "firstgid":1,
         "image":"..\/textures\/tileset.png",
         "imageheight":576,
         "imagewidth":576,
         "margin":0,
         "name":"map_tiles",
         "spacing":0,
         "tilecount":324,
         "tileheight":32,
         "tiles":[
                {
                 "id":0,
                 "properties":[
                        {
                         "name":"blocked",
                         "type":"bool",
                         "value":true
                        }]
                }, 
                {
                 "id":1,
                 "properties":[
                        {
                         "name":"blocked",
                         "type":"bool",
                         "value":true
                        }]
                }, 
                {
                 "id":10,
                 "properties":[
                        {
                         "name":"blocked",
                         "type":"bool",
                         "value":true
                        }]
                }, 
                {
                 "id":100,
                 "properties":[
                        {
                         "name":"blocked",
                         "type":"bool",
                         "value":true
                        }]
                }, 
                {
                 "id":101,
                 "properties":[
                        {
                         "name":"blocked",
                         "type":"bool",
                         "value":true
                        }]
                }, 
                {
                 "id":102,
                 "properties":[
                        {
                         "name":"blocked",
                         "type":"bool",
                         "value":true
                        }]
                }, 
                {
                 "id":103,
                 "properties":[
                        {
                         "name":"blocked",
                         "type":"bool",
                         "value":true
                        }]
                }, 
                {
                 "id":104,
                 "properties":[
                        {
                         "name":"blocked",
                         "type":"bool",
                         "value":true
                        }]
                }, 
                {
                 "id":105,
                 "properties":[
                        {
                         "name":"blocked",
                         "type":"bool",
                         "value":true
                        }]
                }, 
                {
                 "id":106,
                 "properties":[
                        {
                         "name":"blocked",
                         "type":"bool",
                         "value":true
                        }]
                }, 
                {
                 "id":108,
                 "properties":[
                        {
                         "name":"blocked",
                         "type":"bool",
                         "value":true
                        }]
                }, 
                {
                 "id":109,
                 "properties":[
                        {
                         "name":"blocked",
                         "type":"bool",
                         "value":true
                        }]
                }, 
                {
                 "id":11,
                 "properties":[
                        {
                         "name":"blocked",
                         "type":"bool",
                         "value":true
                        }]
                }, 
                {
                 "id":110,
                 "properties":[
                        {
                         "name":"blocked",
                         "type":"bool",
                         "value":true
                        }]
                }, 
                {
                 "id":111,
                 "properties":[
                        {
                         "name":"blocked",
                         "type":"bool",
                         "value":true
                        }]
                }, 
                {
                 "id":112,
                 "properties":[
                        {
                         "name":"blocked",
                         "type":"bool",
                         "value":true
                        }]
                }, 
                {
                 "id":113,
                 "properties":[
                        {
                         "name":"blocked",
                         "type":"bool",
                         "value":true
                        }]
                }, 
                {
                 "id":17
                }, 
                {
                 "id":114,
                 "properties":[
                        {
                         "name":"blocked",
                         "type":"bool",
                         "value":true
                        }]
                }, 
                {
                 "id":115,
                 "properties":[
                        {
                         "name":"blocked",
                         "type":"bool",
                         "value":true
                        }]
                }, 
                {
                 "id":116,
                 "properties":[
                        {
                         "name":"blocked",
                         "type":"bool",
                         "value":true
                        }]
                }, 
                {
                 "id":117,
                 "properties":[
                        {
                         "name":"blocked",
                         "type":"bool",
                         "value":true
                        }]
                }, 
                {
                 "id":118,
                 "properties":[
                        {
                         "name":"blocked",
                         "type":"bool",
                         "value":true
                        }]
                }, 
                {
                 "id":119,
                 "properties":[
                        {
                         "name":"blocked",
                         "type":"bool",
                         "value":true
                        }]
                }, 
                {
                 "id":12,
                 "properties":[
                        {
                         "name":"blocked",
                         "type":"bool",
                         "value":true
                        }]
                }, 
                {
                 "id":120,
                 "properties":[
                        {
                         "name":"blocked",
                         "type":"bool",
                         "value":true
                        }]
                }, 
                {
                 "id":121,
                 "properties":[
                        {
                         "name":"blocked",
                         "type":"bool",
                         "value":true
                        }]
                }, 
                {
                 "id":122,
                 "properties":[
                        {
                         "name":"blocked",
                         "type":"bool",
                         "value":true
                        }]
                }, 
                {
                 "id":123,
                 "properties":[
                        {
                         "name":"blocked",
                         "type":"bool",
                         "value":true
                        }]
                }, 
                {
                 "id":124,
                 "properties":[
                        {
                         "name":"blocked",
                         "type":"bool",
                         "value":true
                        }]
                }, 
                {
                 "id":126,
                 "properties":[
                        {
                         "name":"blocked",
                         "type":"bool",
                         "value":true
                        }]
                }, 
                {
                 "id":127,
                 "properties":[
                        {
                         "name":"blocked",
                         "type":"bool",
                         "value":true
                        }]
                }, 
                {
                 "id":128,
                 "properties":[
                        {
                         "name":"blocked",
                         "type":"bool",
                         "value":true
                        }]
                }, 
                {
                 "id":129,
                 "properties":[
                        {
                         "name":"blocked",
                         "type":"bool",
                         "value":true
                        }]
                }, 
                {
                 "id":13,
                 "properties":[
                        {
                         "name":"blocked",
                         "type":"bool",
                         "value":true
                        }]
                }, 
                {
                 "id":35
                }, 
                {
                 "id":130,
                 "properties":[
                        {
                         "name":"blocked",
                         "type":"bool",
                         "value":true
                        }]
                }, 
                {
                 "id":131,
                 "properties":[
                        {
                         "name":"blocked",
                         "type":"bool",
                         "value":true
                        }]
                }, 
                {
                 "id":132,
                 "properties":[
                        {
                         "name":"blocked",
                         "type":"bool",
                         "value":true
                        }]
                }, 
                {
                 "id":133,
                 "properties":[
                        {
                         "name":"blocked",
                         "type":"bool",
                         "value":true
                        }]
                }, 
                {
                 "id":134,
                 "properties":[
                        {
                         "name":"blocked",
                         "type":"bool",
                         "value":true
                        }]
                }, 
                {
                 "id":135,
                 "properties":[
                        {
                         "name":"blocked",
                         "type":"bool",
                         "value":true
                        }]
                }, 
                {
                 "id":136,
                 "properties":[
                        {
                         "name":"blocked",
                         "type":"bool",
                         "value":true
                        }]
                }, 
                {
                 "id":137,
                 "properties":[
                        {
                         "name":"blocked",
                         "type":"bool",
                         "value":true
                        }]
                }, 
                {
                 "id":138,
                 "properties":[
                        {
                         "name":"blocked",
                         "type":"bool",
                         "value":true
                        }]
                }, 
                {
                 "id":139,
                 "properties":[
                        {
                         "name":"blocked",
                         "type":"bool",
                         "value":true
                        }]
                }, 
                {
                 "id":14,
                 "properties":[
                        {
                         "name":"blocked",
                         "type":"bool",
                         "value":true
                        }]
                }, 
                {
                 "id":140,
                 "properties":[
                        {
                         "name":"blocked",
                         "type":"bool",
                         "value":true
                        }]
                }, 
                {
                 "id":141,
                 "properties":[
                        {
                         "name":"blocked",
                         "type":"bool",
                         "value":true
                        }]
                }, 
                {
                 "id":142,
                 "properties":[
                        {
                         "name":"blocked",
                         "type":"bool",
                         "value":true
                        }]
                }, 
                {
                 "id":144,
                 "properties":[
                        {
                         "name":"blocked",
                         "type":"bool",
                         "value":true
                        }]
                }, 
                {
                 "id":145,
                 "properties":[
                        {
                         "name":"blocked",
                         "type":"bool",
                         "value":true
                        }]
                }, 
                {
                 "id":146,
                 "properties":[
                        {
                         "name":"blocked",
                         "type":"bool",
                         "value":true
                        }]
                }, 
                {
                 "id":53
                }, 
                {
                 "id":147,
                 "properties":[
                        {
                         "name":"blocked",
                         "type":"bool",
                         "value":true
                        }]
                }, 
                {
                 "id":148,
                 "properties":[
                        {
                         "name":"blocked",
                         "type":"bool",
                         "value":true
                        }]
                }, 
                {
                 "id":149,
                 "properties":[
                        {
                         "name":"blocked",
                         "type":"bool",
                         "value":true
                        }]
                }, 
                {
                 "id":15,
                 "properties":[
                        {
                         "name":"blocked",
                         "type":"bool",
                         "value":true
                        }]
                }, 
                {
                 "id":150,
                 "properties":[
                        {
                         "name":"blocked",
                         "type":"bool",
                         "value":true
                        }]
                }, 
                {
                 "id":151,
                 "properties":[
                        {
                         "name":"blocked",
                         "type":"bool",
                         "value":true
                        }]
                }, 
                {
                 "id":152,
                 "properties":[
                        {
                         "name":"blocked",
                         "type":"bool",
                         "value":true
                        }]
                }, 
                {
                 "id":153,
                 "properties":[
                        {
                         "name":"blocked",
                         "type":"bool",
                         "value":true
                        }]
                }, 
                {
                 "id":154,
                 "properties":[
                        {
                         "name":"blocked",
                         "type":"bool",
                         "value":true
                        }]
                }, 
                {
                 "id":155,
                 "properties":[
                        {
                         "name":"blocked",
                         "type":"bool",
                         "value":true
                        }]
                }, 
                {
                 "id":156,
                 "properties":[
                        {
                         "name":"blocked",
                         "type":"bool",
                         "value":true
                        }]
                }, 
                {
                 "id":157,
                 "properties":[
                        {
                         "name":"blocked",
                         "type":"bool",
                         "value":true
                        }]
                }, 
                {
                 "id":158,
                 "properties":[
                        {
                         "name":"blocked",
                         "type":"bool",
                         "value":true
                        }]
                }, 
                {
                 "id":159,
                 "properties":[
                        {
                         "name":"blocked",
                         "type":"bool",
                         "value":true
                        }]
                }, 
                {
                 "id":16,
                 "properties":[
                        {
                         "name":"blocked",
                         "type":"bool",
                         "value":true
                        }]
                }, 
                {
                 "id":160,
                 "properties":[
                        {
                         "name":"blocked",
                         "type":"bool",
                         "value":true
                        }]
                }, 
                {
                 "id":162,
                 "properties":[
                        {
                         "name":"blocked",
                         "type":"bool",
                         "value":true
                        }]
                }, 
                {
                 "id":71
                }, 
                {
                 "id":163,
                 "properties":[
                        {
                         "name":"blocked",
                         "type":"bool",
                         "value":true
                        }]
                }, 
                {
                 "id":164,
                 "properties":[
                        {
                         "name":"blocked",
                         "type":"bool",
                         "value":true
                        }]
                }, 
                {
                 "id":165,
                 "properties":[
                        {
                         "name":"blocked",
                         "type":"bool",
                         "value":true
                        }]
                }, 
                {
                 "id":166,
                 "properties":[
                        {
                         "name":"blocked",
                         "type":"bool",
                         "value":true
                        }]
                }, 
                {
                 "id":167,
                 "properties":[
                        {
                         "name":"blocked",
                         "type":"bool",
                         "value":true
                        }]
                }, 
                {
                 "id":168,
                 "properties":[
                        {
                         "name":"blocked",
                         "type":"bool",
                         "value":true
                        }]
                }, 
                {
                 "id":169,
                 "properties":[
                        {
                         "name":"blocked",
                         "type":"bool",
                         "value":true
                        }]
                }, 
                {
                 "id":170,
                 "properties":[
                        {
                         "name":"blocked",
                         "type":"bool",
                         "value":true
                        }]
                }, 
                {
                 "id":171,
                 "properties":[
                        {
                         "name":"blocked",
                         "type":"bool",
                         "value":true
                        }]
                }, 
                {
                 "id":172,
                 "properties":[
                        {
                         "name":"blocked",
                         "type":"bool",
                         "value":true
                        }]
                }, 
                {
                 "id":173,
                 "properties":[
                        {
                         "name":"blocked",
                         "type":"bool",
                         "value":true
                        }]
                }, 
                {
                 "id":174,
                 "properties":[
                        {
                         "name":"blocked",
                         "type":"bool",
                         "value":true
                        }]
                }, 
                {
                 "id":175,
                 "properties":[
                        {
                         "name":"blocked",
                         "type":"bool",
                         "value":true
                        }]
                }, 
                {
                 "id":176,
                 "properties":[
                        {
                         "name":"blocked",
                         "type":"bool",
                         "value":true
                        }]
                }, 
                {
                 "id":177,
                 "properties":[
                        {
                         "name":"blocked",
                         "type":"bool",
                         "value":true
                        }]
                }, 
                {
                 "id":178,
                 "properties":[
                        {
                         "name":"blocked",
                         "type":"bool",
                         "value":true
                        }]
                }, 
                {
                 "id":18,
                 "properties":[
                        {
                         "name":"blocked",
                         "type":"bool",
                         "value":true
                        }]
                }, 
                {
                 "id":89
                }, 
                {
                 "id":180,
                 "properties":[
                        {
                         "name":"blocked",
                         "type":"bool",
                         "value":true
                        }]
                }, 
                {
                 "id":181,
                 "properties":[
                        {
                         "name":"blocked",
                         "type":"bool",
                         "value":true
                        }]
                }, 
                {
                 "id":182,
                 "properties":[
                        {
                         "name":"blocked",
                         "type":"bool",
                         "value":true
                        }]
                }, 
                {
                 "id":183,
                 "properties":[
                        {
                         "name":"blocked",
                         "type":"bool",
                         "value":true
                        }]
                }, 
                {
                 "id":184,
                 "properties":[
                        {
                         "name":"blocked",
                         "type":"bool",
                         "value":true
                        }]
                }, 
                {
                 "id":185,
                 "properties":[
                        {
                         "name":"blocked",
                         "type":"bool",
                         "value":true
                        }]
                }, 
                {
                 "id":186,
                 "properties":[
                        {
                         "name":"blocked",
                         "type":"bool",
                         "value":true
                        }]
                }, 
                {
                 "id":187,
                 "properties":[
                        {
                         "name":"blocked",
                         "type":"bool",
                         "value":true
                        }]
                }, 
                {
                 "id":188,
                 "properties":[
                        {
                         "name":"blocked",
                         "type":"bool",
                         "value":true
                        }]
                }, 
                {
                 "id":189,
                 "properties":[
                        {
                         "name":"blocked",
                         "type":"bool",
                         "value":true
                        }]
                }, 
                {
                 "id":19,
                 "properties":[
                        {
                         "name":"blocked",
                         "type":"bool",
                         "value":true
                        }]
                }, 
                {
                 "id":190,
                 "properties":[
                        {
                         "name":"blocked",
                         "type":"bool",
                         "value":true
                        }]
                }, 
                {
                 "id":191,
                 "properties":[
                        {
                         "name":"blocked",
                         "type":"bool",
                         "value":true
                        }]
                }, 
                {
                 "id":192,
                 "properties":[
                        {
                         "name":"blocked",
                         "type":"bool",
                         "value":true
                        }]
                }, 
                {
                 "id":193,
                 "properties":[
                        {
                         "name":"blocked",
                         "type":"bool",
                         "value":true
                        }]
                }, 
                {
                 "id":194,
                 "properties":[
                        {
                         "name":"blocked",
                         "type":"bool",
                         "value":true
                        }]
                }, 
                {
                 "id":195,
                 "properties":[
                        {
                         "name":"blocked",
                         "type":"bool",
                         "value":true
                        }]
                }, 
                {
                 "id":107
                }, 
                {
                 "id":196,
                 "properties":[
                        {
                         "name":"blocked",
                         "type":"bool",
                         "value":true
                        }]
                }, 
                {
                 "id":198,
                 "properties":[
                        {
                         "name":"blocked",
                         "type":"bool",
                         "value":true
                        }]
                }, 
                {
                 "id":199,
                 "properties":[
                        {
                         "name":"blocked",
                         "type":"bool",
                         "value":true
                        }]
                }, 
                {
                 "id":2,
                 "properties":[
                        {
                         "name":"blocked",
                         "type":"bool",
                         "value":true
                        }]
                }, 
                {
                 "id":20,
                 "properties":[
                        {
                         "name":"blocked",
                         "type":"bool",
                         "value":true
                        }]
                }, 
                {
                 "id":200,
                 "properties":[
                        {
                         "name":"blocked",
                         "type":"bool",
                         "value":true
                        }]
                }, 
                {
                 "id":201,
                 "properties":[
                        {
                         "name":"blocked",
                         "type":"bool",
                         "value":true
                        }]
                }, 
                {
                 "id":202,
                 "properties":[
                        {
                         "name":"blocked",
                         "type":"bool",
                         "value":true
                        }]
                }, 
                {
                 "id":203,
                 "properties":[
                        {
                         "name":"blocked",
                         "type":"bool",
                         "value":true
                        }]
                }, 
                {
                 "id":204,
                 "properties":[
                        {
                         "name":"blocked",
                         "type":"bool",
                         "value":true
                        }]
                }, 
                {
                 "id":205,
                 "properties":[
                        {
                         "name":"blocked",
                         "type":"bool",
                         "value":true
                        }]
                }, 
                {
                 "id":206,
                 "properties":[
                        {
                         "name":"blocked",
                         "type":"bool",
                         "value":true
                        }]
                }, 
                {
                 "id":207,
                 "properties":[
                        {
                         "name":"blocked",
                         "type":"bool",
                         "value":true
                        }]
                }, 
                {
                 "id":208,
                 "properties":[
                        {
                         "name":"blocked",
                         "type":"bool",
                         "value":true
                        }]
                }, 
                {
                 "id":209,
                 "properties":[
                        {
                         "name":"blocked",
                         "type":"bool",
                         "value":true
                        }]
                }, 
                {
                 "id":21,
                 "properties":[
                        {
                         "name":"blocked",
                         "type":"bool",
                         "value":true
                        }]
                }, 
                {
                 "id":210,
                 "properties":[
                        {
                         "name":"blocked",
                         "type":"bool",
                         "value":true
                        }]
                }, 
                {
                 "id":125
                }, 
                {
                 "id":211,
                 "properties":[
                        {
                         "name":"blocked",
                         "type":"bool",
                         "value":true
                        }]
                }, 
                {
                 "id":212,
                 "properties":[
                        {
                         "name":"blocked",
                         "type":"bool",
                         "value":true
                        }]
                }, 
                {
                 "id":213,
                 "properties":[
                        {
                         "name":"blocked",
                         "type":"bool",
                         "value":true
                        }]
                }, 
                {
                 "id":214,
                 "properties":[
                        {
                         "name":"blocked",
                         "type":"bool",
                         "value":true
                        }]
                }, 
                {
                 "id":216,
                 "properties":[
                        {
                         "name":"blocked",
                         "type":"bool",
                         "value":true
                        }]
                }, 
                {
                 "id":217,
                 "properties":[
                        {
                         "name":"blocked",
                         "type":"bool",
                         "value":true
                        }]
                }, 
                {
                 "id":218,
                 "properties":[
                        {
                         "name":"blocked",
                         "type":"bool",
                         "value":true
                        }]
                }, 
                {
                 "id":219,
                 "properties":[
                        {
                         "name":"blocked",
                         "type":"bool",
                         "value":true
                        }]
                }, 
                {
                 "id":22,
                 "properties":[
                        {
                         "name":"blocked",
                         "type":"bool",
                         "value":true
                        }]
                }, 
                {
                 "id":220,
                 "properties":[
                        {
                         "name":"blocked",
                         "type":"bool",
                         "value":true
                        }]
                }, 
                {
                 "id":221,
                 "properties":[
                        {
                         "name":"blocked",
                         "type":"bool",
                         "value":true
                        }]
                }, 
                {
                 "id":222,
                 "properties":[
                        {
                         "name":"blocked",
                         "type":"bool",
                         "value":true
                        }]
                }, 
                {
                 "id":223,
                 "properties":[
                        {
                         "name":"blocked",
                         "type":"bool",
                         "value":true
                        }]
                }, 
                {
                 "id":224,
                 "properties":[
                        {
                         "name":"blocked",
                         "type":"bool",
                         "value":true
                        }]
                }, 
                {
                 "id":225,
                 "properties":[
                        {
                         "name":"blocked",
                         "type":"bool",
                         "value":true
                        }]
                }, 
                {
                 "id":226,
                 "properties":[
                        {
                         "name":"blocked",
                         "type":"bool",
                         "value":true
                        }]
                }, 
                {
                 "id":227,
                 "properties":[
                        {
                         "name":"blocked",
                         "type":"bool",
                         "value":true
                        }]
                }, 
                {
                 "id":143
                }, 
                {
                 "id":228,
                 "properties":[
                        {
                         "name":"blocked",
                         "type":"bool",
                         "value":true
                        }]
                }, 
                {
                 "id":229,
                 "properties":[
                        {
                         "name":"blocked",
                         "type":"bool",
                         "value":true
                        }]
                }, 
                {
                 "id":23,
                 "properties":[
                        {
                         "name":"blocked",
                         "type":"bool",
                         "value":true
                        }]
                }, 
                {
                 "id":230,
                 "properties":[
                        {
                         "name":"blocked",
                         "type":"bool",
                         "value":true
                        }]
                }, 
                {
                 "id":231,
                 "properties":[
                        {
                         "name":"blocked",
                         "type":"bool",
                         "value":true
                        }]
                }, 
                {
                 "id":232,
                 "properties":[
                        {
                         "name":"blocked",
                         "type":"bool",
                         "value":true
                        }]
                }, 
                {
                 "id":234,
                 "properties":[
                        {
                         "name":"blocked",
                         "type":"bool",
                         "value":true
                        }]
                }, 
                {
                 "id":235,
                 "properties":[
                        {
                         "name":"blocked",
                         "type":"bool",
                         "value":true
                        }]
                }, 
                {
                 "id":236,
                 "properties":[
                        {
                         "name":"blocked",
                         "type":"bool",
                         "value":true
                        }]
                }, 
                {
                 "id":237,
                 "properties":[
                        {
                         "name":"blocked",
                         "type":"bool",
                         "value":true
                        }]
                }, 
                {
                 "id":238,
                 "properties":[
                        {
                         "name":"blocked",
                         "type":"bool",
                         "value":true
                        }]
                }, 
                {
                 "id":239,
                 "properties":[
                        {
                         "name":"blocked",
                         "type":"bool",
                         "value":true
                        }]
                }, 
                {
                 "id":24,
                 "properties":[
                        {
                         "name":"blocked",
                         "type":"bool",
                         "value":true
                        }]
                }, 
                {
                 "id":240,
                 "properties":[
                        {
                         "name":"blocked",
                         "type":"bool",
                         "value":true
                        }]
                }, 
                {
                 "id":241,
                 "properties":[
                        {
                         "name":"blocked",
                         "type":"bool",
                         "value":true
                        }]
                }, 
                {
                 "id":242,
                 "properties":[
                        {
                         "name":"blocked",
                         "type":"bool",
                         "value":true
                        }]
                }, 
                {
                 "id":243,
                 "properties":[
                        {
                         "name":"blocked",
                         "type":"bool",
                         "value":true
                        }]
                }, 
                {
                 "id":161
                }, 
                {
                 "id":244,
                 "properties":[
                        {
                         "name":"blocked",
                         "type":"bool",
                         "value":true
                        }]
                }, 
                {
                 "id":245,
                 "properties":[
                        {
                         "name":"blocked",
                         "type":"bool",
                         "value":true
                        }]
                }, 
                {
                 "id":246,
                 "properties":[
                        {
                         "name":"blocked",
                         "type":"bool",
                         "value":true
                        }]
                }, 
                {
                 "id":247,
                 "properties":[
                        {
                         "name":"blocked",
                         "type":"bool",
                         "value":true
                        }]
                }, 
                {
                 "id":248,
                 "properties":[
                        {
                         "name":"blocked",
                         "type":"bool",
                         "value":true
                        }]
                }, 
                {
                 "id":249,
                 "properties":[
                        {
                         "name":"blocked",
                         "type":"bool",
                         "value":true
                        }]
                }, 
                {
                 "id":25,
                 "properties":[
                        {
                         "name":"blocked",
                         "type":"bool",
                         "value":true
                        }]
                }, 
                {
                 "id":250,
                 "properties":[
                        {
                         "name":"blocked",
                         "type":"bool",
                         "value":true
                        }]
                }, 
                {
                 "id":252,
                 "properties":[
                        {
                         "name":"blocked",
                         "type":"bool",
                         "value":true
                        }]
                }, 
                {
                 "id":253,
                 "properties":[
                        {
                         "name":"blocked",
                         "type":"bool",
                         "value":true
                        }]
                }, 
                {
                 "id":254,
                 "properties":[
                        {
                         "name":"blocked",
                         "type":"bool",
                         "value":true
                        }]
                }, 
                {
                 "id":255,
                 "properties":[
                        {
                         "name":"blocked",
                         "type":"bool",
                         "value":true
                        }]
                }, 
                {
                 "id":256,
                 "properties":[
                        {
                         "name":"blocked",
                         "type":"bool",
                         "value":true
                        }]
                }, 
                {
                 "id":257,
                 "properties":[
                        {
                         "name":"blocked",
                         "type":"bool",
                         "value":true
                        }]
                }, 
                {
                 "id":258,
                 "properties":[
                        {
                         "name":"blocked",
                         "type":"bool",
                         "value":true
                        }]
                }, 
                {
                 "id":259,
                 "properties":[
                        {
                         "name":"blocked",
                         "type":"bool",
                         "value":true
                        }]
                }, 
                {
                 "id":26,
                 "properties":[
                        {
                         "name":"blocked",
                         "type":"bool",
                         "value":true
                        }]
                }, 
                {
                 "id":179
                }, 
                {
                 "id":260,
                 "properties":[
                        {
                         "name":"blocked",
                         "type":"bool",
                         "value":true
                        }]
                }, 
                {
                 "id":261,
                 "properties":[
                        {
                         "name":"blocked",
                         "type":"bool",
                         "value":true
                        }]
                }, 
                {
                 "id":262,
                 "properties":[
                        {
                         "name":"blocked",
                         "type":"bool",
                         "value":true
                        }]
                }, 
                {
                 "id":263,
                 "properties":[
                        {
                         "name":"blocked",
                         "type":"bool",
                         "value":true
                        }]
                }, 
                {
                 "id":264,
                 "properties":[
                        {
                         "name":"blocked",
                         "type":"bool",
                         "value":true
                        }]
                }, 
                {
                 "id":265,
                 "properties":[
                        {
                         "name":"blocked",
                         "type":"bool",
                         "value":true
                        }]
                }, 
                {
                 "id":266,
                 "properties":[
                        {
                         "name":"blocked",
                         "type":"bool",
                         "value":true
                        }]
                }, 
                {
                 "id":267,
                 "properties":[
                        {
                         "name":"blocked",
                         "type":"bool",
                         "value":true
                        }]
                }, 
                {
                 "id":268,
                 "properties":[
                        {
                         "name":"blocked",
                         "type":"bool",
                         "value":true
                        }]
                }, 
                {
                 "id":27,
                 "properties":[
                        {
                         "name":"blocked",
                         "type":"bool",
                         "value":true
                        }]
                }, 
                {
                 "id":270,
                 "properties":[
                        {
                         "name":"blocked",
                         "type":"bool",
                         "value":true
                        }]
                }, 
                {
                 "id":271,
                 "properties":[
                        {
                         "name":"blocked",
                         "type":"bool",
                         "value":true
                        }]
                }, 
                {
                 "id":272,
                 "properties":[
                        {
                         "name":"blocked",
                         "type":"bool",
                         "value":true
                        }]
                }, 
                {
                 "id":273,
                 "properties":[
                        {
                         "name":"blocked",
                         "type":"bool",
                         "value":true
                        }]
                }, 
                {
                 "id":274,
                 "properties":[
                        {
                         "name":"blocked",
                         "type":"bool",
                         "value":true
                        }]
                }, 
                {
                 "id":275,
                 "properties":[
                        {
                         "name":"blocked",
                         "type":"bool",
                         "value":true
                        }]
                }, 
                {
                 "id":276,
                 "properties":[
                        {
                         "name":"blocked",
                         "type":"bool",
                         "value":true
                        }]
                }, 
                {
                 "id":197
                }, 
                {
                 "id":277,
                 "properties":[
                        {
                         "name":"blocked",
                         "type":"bool",
                         "value":true
                        }]
                }, 
                {
                 "id":278,
                 "properties":[
                        {
                         "name":"blocked",
                         "type":"bool",
                         "value":true
                        }]
                }, 
                {
                 "id":279,
                 "properties":[
                        {
                         "name":"blocked",
                         "type":"bool",
                         "value":true
                        }]
                }, 
                {
                 "id":28,
                 "properties":[
                        {
                         "name":"blocked",
                         "type":"bool",
                         "value":true
                        }]
                }, 
                {
                 "id":280,
                 "properties":[
                        {
                         "name":"blocked",
                         "type":"bool",
                         "value":true
                        }]
                }, 
                {
                 "id":281,
                 "properties":[
                        {
                         "name":"blocked",
                         "type":"bool",
                         "value":true
                        }]
                }, 
                {
                 "id":282,
                 "properties":[
                        {
                         "name":"blocked",
                         "type":"bool",
                         "value":true
                        }]
                }, 
                {
                 "id":283,
                 "properties":[
                        {
                         "name":"blocked",
                         "type":"bool",
                         "value":true
                        }]
                }, 
                {
                 "id":284,
                 "properties":[
                        {
                         "name":"blocked",
                         "type":"bool",
                         "value":true
                        }]
                }, 
                {
                 "id":285,
                 "properties":[
                        {
                         "name":"blocked",
                         "type":"bool",
                         "value":true
                        }]
                }, 
                {
                 "id":286,
                 "properties":[
                        {
                         "name":"blocked",
                         "type":"bool",
                         "value":true
                        }]
                }, 
                {
                 "id":288,
                 "properties":[
                        {
                         "name":"blocked",
                         "type":"bool",
                         "value":true
                        }]
                }, 
                {
                 "id":289,
                 "properties":[
                        {
                         "name":"blocked",
                         "type":"bool",
                         "value":true
                        }]
                }, 
                {
                 "id":29,
                 "properties":[
                        {
                         "name":"blocked",
                         "type":"bool",
                         "value":true
                        }]
                }, 
                {
                 "id":290,
                 "properties":[
                        {
                         "name":"blocked",
                         "type":"bool",
                         "value":true
                        }]
                }, 
                {
                 "id":291,
                 "properties":[
                        {
                         "name":"blocked",
                         "type":"bool",
                         "value":true
                        }]
                }, 
                {
                 "id":292,
                 "properties":[
                        {
                         "name":"blocked",
                         "type":"bool",
                         "value":true
                        }]
                }, 
                {
                 "id":215
                }, 
                {
                 "id":293,
                 "properties":[
                        {
                         "name":"blocked",
                         "type":"bool",
                         "value":true
                        }]
                }, 
                {
                 "id":294,
                 "properties":[
                        {
                         "name":"blocked",
                         "type":"bool",
                         "value":true
                        }]
                }, 
                {
                 "id":295,
                 "properties":[
                        {
                         "name":"blocked",
                         "type":"bool",
                         "value":true
                        }]
                }, 
                {
                 "id":296,
                 "properties":[
                        {
                         "name":"blocked",
                         "type":"bool",
                         "value":true
                        }]
                }, 
                {
                 "id":297,
                 "properties":[
                        {
                         "name":"blocked",
                         "type":"bool",
                         "value":true
                        }]
                }, 
                {
                 "id":298,
                 "properties":[
                        {
                         "name":"blocked",
                         "type":"bool",
                         "value":true
                        }]
                }, 
                {
                 "id":299,
                 "properties":[
                        {
                         "name":"blocked",
                         "type":"bool",
                         "value":true
                        }]
                }, 
                {
                 "id":3,
                 "properties":[
                        {
                         "name":"blocked",
                         "type":"bool",
                         "value":true
                        }]
                }, 
                {
                 "id":30,
                 "properties":[
                        {
                         "name":"blocked",
                         "type":"bool",
                         "value":true
                        }]
                }, 
                {
                 "id":300,
                 "properties":[
                        {
                         "name":"blocked",
                         "type":"bool",
                         "value":true
                        }]
                }, 
                {
                 "id":301,
                 "properties":[
                        {
                         "name":"blocked",
                         "type":"bool",
                         "value":true
                        }]
                }, 
                {
                 "id":302,
                 "properties":[
                        {
                         "name":"blocked",
                         "type":"bool",
                         "value":true
                        }]
                }, 
                {
                 "id":303,
                 "properties":[
                        {
                         "name":"blocked",
                         "type":"bool",
                         "value":true
                        }]
                }, 
                {
                 "id":304,
                 "properties":[
                        {
                         "name":"blocked",
                         "type":"bool",
                         "value":true
                        }]
                }, 
                {
                 "id":31,
                 "properties":[
                        {
                         "name":"blocked",
                         "type":"bool",
                         "value":true
                        }]
                }, 
                {
                 "id":32,
                 "properties":[
                        {
                         "name":"blocked",
                         "type":"bool",
                         "value":true
                        }]
                }, 
                {
                 "id":33,
                 "properties":[
                        {
                         "name":"blocked",
                         "type":"bool",
                         "value":true
                        }]
                }, 
                {
                 "id":233
                }, 
                {
                 "id":34,
                 "properties":[
                        {
                         "name":"blocked",
                         "type":"bool",
                         "value":true
                        }]
                }, 
                {
                 "id":36,
                 "properties":[
                        {
                         "name":"blocked",
                         "type":"bool",
                         "value":true
                        }]
                }, 
                {
                 "id":37,
                 "properties":[
                        {
                         "name":"blocked",
                         "type":"bool",
                         "value":true
                        }]
                }, 
                {
                 "id":38,
                 "properties":[
                        {
                         "name":"blocked",
                         "type":"bool",
                         "value":true
                        }]
                }, 
                {
                 "id":39,
                 "properties":[
                        {
                         "name":"blocked",
                         "type":"bool",
                         "value":true
                        }]
                }, 
                {
                 "id":4,
                 "properties":[
                        {
                         "name":"blocked",
                         "type":"bool",
                         "value":true
                        }]
                }, 
                {
                 "id":40,
                 "properties":[
                        {
                         "name":"blocked",
                         "type":"bool",
                         "value":true
                        }]
                }, 
                {
                 "id":41,
                 "properties":[
                        {
                         "name":"blocked",
                         "type":"bool",
                         "value":true
                        }]
                }, 
                {
                 "id":42,
                 "properties":[
                        {
                         "name":"blocked",
                         "type":"bool",
                         "value":true
                        }]
                }, 
                {
                 "id":43,
                 "properties":[
                        {
                         "name":"blocked",
                         "type":"bool",
                         "value":true
                        }]
                }, 
                {
                 "id":44,
                 "properties":[
                        {
                         "name":"blocked",
                         "type":"bool",
                         "value":true
                        }]
                }, 
                {
                 "id":45,
                 "properties":[
                        {
                         "name":"blocked",
                         "type":"bool",
                         "value":true
                        }]
                }, 
                {
                 "id":46,
                 "properties":[
                        {
                         "name":"blocked",
                         "type":"bool",
                         "value":true
                        }]
                }, 
                {
                 "id":47,
                 "properties":[
                        {
                         "name":"blocked",
                         "type":"bool",
                         "value":true
                        }]
                }, 
                {
                 "id":48,
                 "properties":[
                        {
                         "name":"blocked",
                         "type":"bool",
                         "value":true
                        }]
                }, 
                {
                 "id":49,
                 "properties":[
                        {
                         "name":"blocked",
                         "type":"bool",
                         "value":true
                        }]
                }, 
                {
                 "id":5,
                 "properties":[
                        {
                         "name":"blocked",
                         "type":"bool",
                         "value":true
                        }]
                }, 
                {
                 "id":251
                }, 
                {
                 "id":50,
                 "properties":[
                        {
                         "name":"blocked",
                         "type":"bool",
                         "value":true
                        }]
                }, 
                {
                 "id":51,
                 "properties":[
                        {
                         "name":"blocked",
                         "type":"bool",
                         "value":true
                        }]
                }, 
                {
                 "id":52,
                 "properties":[
                        {
                         "name":"blocked",
                         "type":"bool",
                         "value":true
                        }]
                }, 
                {
                 "id":54,
                 "properties":[
                        {
                         "name":"blocked",
                         "type":"bool",
                         "value":true
                        }]
                }, 
                {
                 "id":55,
                 "properties":[
                        {
                         "name":"blocked",
                         "type":"bool",
                         "value":true
                        }]
                }, 
                {
                 "id":56,
                 "properties":[
                        {
                         "name":"blocked",
                         "type":"bool",
                         "value":true
                        }]
                }, 
                {
                 "id":57,
                 "properties":[
                        {
                         "name":"blocked",
                         "type":"bool",
                         "value":true
                        }]
                }, 
                {
                 "id":58,
                 "properties":[
                        {
                         "name":"blocked",
                         "type":"bool",
                         "value":true
                        }]
                }, 
                {
                 "id":59,
                 "properties":[
                        {
                         "name":"blocked",
                         "type":"bool",
                         "value":true
                        }]
                }, 
                {
                 "id":6,
                 "properties":[
                        {
                         "name":"blocked",
                         "type":"bool",
                         "value":true
                        }]
                }, 
                {
                 "id":60,
                 "properties":[
                        {
                         "name":"blocked",
                         "type":"bool",
                         "value":true
                        }]
                }, 
                {
                 "id":61,
                 "properties":[
                        {
                         "name":"blocked",
                         "type":"bool",
                         "value":true
                        }]
                }, 
                {
                 "id":62,
                 "properties":[
                        {
                         "name":"blocked",
                         "type":"bool",
                         "value":true
                        }]
                }, 
                {
                 "id":63,
                 "properties":[
                        {
                         "name":"blocked",
                         "type":"bool",
                         "value":true
                        }]
                }, 
                {
                 "id":64,
                 "properties":[
                        {
                         "name":"blocked",
                         "type":"bool",
                         "value":true
                        }]
                }, 
                {
                 "id":65,
                 "properties":[
                        {
                         "name":"blocked",
                         "type":"bool",
                         "value":true
                        }]
                }, 
                {
                 "id":66,
                 "properties":[
                        {
                         "name":"blocked",
                         "type":"bool",
                         "value":true
                        }]
                }, 
                {
                 "id":269
                }, 
                {
                 "id":67,
                 "properties":[
                        {
                         "name":"blocked",
                         "type":"bool",
                         "value":true
                        }]
                }, 
                {
                 "id":68,
                 "properties":[
                        {
                         "name":"blocked",
                         "type":"bool",
                         "value":true
                        }]
                }, 
                {
                 "id":69,
                 "properties":[
                        {
                         "name":"blocked",
                         "type":"bool",
                         "value":true
                        }]
                }, 
                {
                 "id":7,
                 "properties":[
                        {
                         "name":"blocked",
                         "type":"bool",
                         "value":true
                        }]
                }, 
                {
                 "id":70,
                 "properties":[
                        {
                         "name":"blocked",
                         "type":"bool",
                         "value":true
                        }]
                }, 
                {
                 "id":72,
                 "properties":[
                        {
                         "name":"blocked",
                         "type":"bool",
                         "value":true
                        }]
                }, 
                {
                 "id":73,
                 "properties":[
                        {
                         "name":"blocked",
                         "type":"bool",
                         "value":true
                        }]
                }, 
                {
                 "id":74,
                 "properties":[
                        {
                         "name":"blocked",
                         "type":"bool",
                         "value":true
                        }]
                }, 
                {
                 "id":75,
                 "properties":[
                        {
                         "name":"blocked",
                         "type":"bool",
                         "value":true
                        }]
                }, 
                {
                 "id":76,
                 "properties":[
                        {
                         "name":"blocked",
                         "type":"bool",
                         "value":true
                        }]
                }, 
                {
                 "id":77,
                 "properties":[
                        {
                         "name":"blocked",
                         "type":"bool",
                         "value":true
                        }]
                }, 
                {
                 "id":78,
                 "properties":[
                        {
                         "name":"blocked",
                         "type":"bool",
                         "value":true
                        }]
                }, 
                {
                 "id":79,
                 "properties":[
                        {
                         "name":"blocked",
                         "type":"bool",
                         "value":true
                        }]
                }, 
                {
                 "id":8,
                 "properties":[
                        {
                         "name":"blocked",
                         "type":"bool",
                         "value":true
                        }]
                }, 
                {
                 "id":80,
                 "properties":[
                        {
                         "name":"blocked",
                         "type":"bool",
                         "value":true
                        }]
                }, 
                {
                 "id":81,
                 "properties":[
                        {
                         "name":"blocked",
                         "type":"bool",
                         "value":true
                        }]
                }, 
                {
                 "id":82,
                 "properties":[
                        {
                         "name":"blocked",
                         "type":"bool",
                         "value":true
                        }]
                }, 
                {
                 "id":287
                }, 
                {
                 "id":83,
                 "properties":[
                        {
                         "name":"blocked",
                         "type":"bool",
                         "value":true
                        }]
                }, 
                {
                 "id":84,
                 "properties":[
                        {
                         "name":"blocked",
                         "type":"bool",
                         "value":true
                        }]
                }, 
                {
                 "id":85,
                 "properties":[
                        {
                         "name":"blocked",
                         "type":"bool",
                         "value":true
                        }]
                }, 
                {
                 "id":86,
                 "properties":[
                        {
                         "name":"blocked",
                         "type":"bool",
                         "value":true
                        }]
                }, 
                {
                 "id":87,
                 "properties":[
                        {
                         "name":"blocked",
                         "type":"bool",
                         "value":true
                        }]
                }, 
                {
                 "id":88,
                 "properties":[
                        {
                         "name":"blocked",
                         "type":"bool",
                         "value":true
                        }]
                }, 
                {
                 "id":9,
                 "properties":[
                        {
                         "name":"blocked",
                         "type":"bool",
                         "value":true
                        }]
                }, 
                {
                 "id":90,
                 "properties":[
                        {
                         "name":"blocked",
                         "type":"bool",
                         "value":true
                        }]
                }, 
                {
                 "id":91,
                 "properties":[
                        {
                         "name":"blocked",
                         "type":"bool",
                         "value":true
                        }]
                }, 
                {
                 "id":92,
                 "properties":[
                        {
                         "name":"blocked",
                         "type":"bool",
                         "value":true
                        }]
                }, 
                {
                 "id":93,
                 "properties":[
                        {
                         "name":"blocked",
                         "type":"bool",
                         "value":true
                        }]
                }, 
                {
                 "id":94,
                 "properties":[
                        {
                         "name":"blocked",
                         "type":"bool",
                         "value":true
                        }]
                }, 
                {
                 "id":95,
                 "properties":[
                        {
                         "name":"blocked",
                         "type":"bool",
                         "value":true
                        }]
                }, 
                {
                 "id":96,
                 "properties":[
                        {
                         "name":"blocked",
                         "type":"bool",
                         "value":true
                        }]
                }, 
                {
                 "id":97,
                 "properties":[
                        {
                         "name":"blocked",
                         "type":"bool",
                         "value":true
                        }]
                }, 
                {
                 "id":98,
                 "properties":[
                        {
                         "name":"blocked",
                         "type":"bool",
                         "value":true
                        }]
                }, 
                {
                 "id":99,
                 "properties":[
                        {
                         "name":"blocked",
                         "type":"bool",
                         "value":true
                        }]
                }, 
                {
                 "id":305
                }, 
                {
                 "id":306
                }, 
                {
                 "id":307
                }, 
                {
                 "id":308
                }, 
                {
                 "id":309
                }, 
                {
                 "id":310
                }, 
                {
                 "id":311
                }, 
                {
                 "id":312
                }, 
                {
                 "id":313
                }, 
                {
                 "id":314
                }, 
                {
                 "id":315
                }, 
                {
                 "id":316
                }, 
                {
                 "id":317
                }, 
                {
                 "id":318
                }, 
                {
                 "id":319
                }, 
                {
                 "id":320
                }, 
                {
                 "id":321
                }, 
                {
                 "id":322
                }, 
                {
                 "id":323
                }],
         "tilewidth":32
        }],
 "tilewidth":32,
 "type":"map",
 "version":"1.6",
 "width":10
}